{
    "schemes": [
        "http",
        "https"
    ],
    "swagger": "2.0",
    "info": {
        "title": "MSBigtech Messages API",
        "contact": {},
        "version": "1.0"
    },
    "host": "localhost:8080",
    "basePath": "/hc",
    "paths": {
        "/live": {
            "get": {
                "consumes": [
                    "application/json"
                ],
                "produces": [
                    "application/json"
                ],
                "tags": [
                    "healthchecks"
                ],
                "summary": "liveness probe",
                "responses": {
                    "200": {
                        "description": "ok",
                        "schema": {
                            "type": "string"
                        }
                    }
                }
            }
        },
        "/ready": {
            "get": {
                "consumes": [
                    "application/json"
                ],
                "produces": [
                    "application/json"
                ],
                "tags": [
                    "healthchecks"
                ],
                "summary": "readiness probe",
                "responses": {
                    "200": {
                        "description": "ok",
                        "schema": {
                            "type": "string"
                        }
                    }
                }
            }
        }
    },
    "securityDefinitions": {
        "MSBigtechAuth": {
            "type": "oauth2",
            "flow": "implicit",
            "authorizationUrl": "https://msbigtech.local/oauth/authorize"
        },
        "api_key": {
            "type": "apiKey",
            "name": "api_key",
            "in": "header"
        }
    },
    "tags": [
        {
            "description": "Healthchecks API",
            "name": "healthchecks"
        }
    ]
}